^E:\SHAVYRIN_A_V_\BUILD\PRJ\LAB3\LAB3.DIR\DEBUG\SOURCE.OBJ
E:\SHAVYRIN_A_V_\BIN.WIN64.VC2015.DBG\LAB3.EXE
E:\SHAVYRIN_A_V_\BIN.WIN64.VC2015.DBG\LAB3.ILK
E:\SHAVYRIN_A_V_\BIN.WIN64.VC2015.DBG\LAB3.PDB
